…
cv_df %>% pull(train) %>% nth(1) %>% as.tibble()
```

    ## Warning: `as.tibble()` was deprecated in tibble 2.0.0.
    ## ℹ Please use `as_tibble()` instead.
    ## ℹ The signature and semantics have changed, see `?as_tibble`.
    ## This warning is displayed once every 8 hours.
    ## Call `lifecycle::last_lifecycle_warnings()` to see where this warning was
    ## generated.

    ## # A tibble: 3,473 × 20
    ##    babysex bhead blength   bwt delwt fincome frace gaweeks malform menarche
    ##    <fct>   <dbl>   <dbl> <dbl> <dbl>   <dbl> <fct>   <dbl> <fct>      <dbl>
    ##  1 Female     34      51  3629   177      35 White    39.9 Absent        13
    ##  2 Male       34      48  3062   156      65 Black    25.9 Absent        14
    ##  3 Female     36      50  3345   148      85 White    39.9 Absent        12
    ##  4 Male       34      52  3062   157      55 White    40   Absent        14
    ##  5 Female     34      52  3374   156       5 White    41.6 Absent        13
    ##  6 Female     33      46  2523   126      96 Black    40.3 Absent        14
    ##  7 Male       36      52  3515   146      85 White    40.3 Absent        11
    ##  8 Male       33      50  3459   169      75 Black    40.7 Absent        12
    ##  9 Female     35      51  3317   130      55 White    43.4 Absent        13
    ## 10 Male       35      51  3459   146      55 White    39.4 Absent        12
    ## # ℹ 3,463 more rows
    ## # ℹ 10 more variables: mheight <dbl>, momage <dbl>, mrace <fct>, parity <dbl>,
    ## #   pnumlbw <dbl>, pnumsga <dbl>, ppbmi <dbl>, ppwt <dbl>, smoken <dbl>,
    ## #   wtgain <dbl>
…
cv_res
```

    ## # A tibble: 100 × 9
    ##    train    test     .id   model_1 model_2 model_3 rmse_1 rmse_2 rmse_3
    ##    <list>   <list>   <chr> <list>  <list>  <list>   <dbl>  <dbl>  <dbl>
    ##  1 <tibble> <tibble> 001   <lm>    <lm>    <lm>      463.   360.   302.
    ##  2 <tibble> <tibble> 002   <lm>    <lm>    <lm>      463.   322.   280.
    ##  3 <tibble> <tibble> 003   <lm>    <lm>    <lm>      454.   307.   279.
    ##  4 <tibble> <tibble> 004   <lm>    <lm>    <lm>      471.   337.   298.
    ##  5 <tibble> <tibble> 005   <lm>    <lm>    <lm>      484.   367.   303.
    ##  6 <tibble> <tibble> 006   <lm>    <lm>    <lm>      444.   314.   282.
    ##  7 <tibble> <tibble> 007   <lm>    <lm>    <lm>      446.   357.   290.
    ##  8 <tibble> <tibble> 008   <lm>    <lm>    <lm>      456.   346.   301.
    ##  9 <tibble> <tibble> 009   <lm>    <lm>    <lm>      464.   327.   287.
    ## 10 <tibble> <tibble> 010   <lm>    <lm>    <lm>      443.   338.   292.
    ## # ℹ 90 more rows
…
cv_res2
```

    ## # A tibble: 100 × 9
    ##    train    test     .id   model_1.5 model_2 model_3 rmse_1.5 rmse_2 rmse_3
    ##    <list>   <list>   <chr> <list>    <list>  <list>     <dbl>  <dbl>  <dbl>
    ##  1 <tibble> <tibble> 001   <lm>      <lm>    <lm>        298.   360.   302.
    ##  2 <tibble> <tibble> 002   <lm>      <lm>    <lm>        277.   322.   280.
    ##  3 <tibble> <tibble> 003   <lm>      <lm>    <lm>        276.   307.   279.
    ##  4 <tibble> <tibble> 004   <lm>      <lm>    <lm>        295.   337.   298.
    ##  5 <tibble> <tibble> 005   <lm>      <lm>    <lm>        300.   367.   303.
    ##  6 <tibble> <tibble> 006   <lm>      <lm>    <lm>        278.   314.   282.
    ##  7 <tibble> <tibble> 007   <lm>      <lm>    <lm>        285.   357.   290.
    ##  8 <tibble> <tibble> 008   <lm>      <lm>    <lm>        298.   346.   301.
    ##  9 <tibble> <tibble> 009   <lm>      <lm>    <lm>        284.   327.   287.
    ## 10 <tibble> <tibble> 010   <lm>      <lm>    <lm>        289.   338.   292.
    ## # ℹ 90 more rows
…
